Chapter 10 Working with Dates and Time | A glimpse of GIS and Remote Sensing with R
…
lubridate::dminutes(10); lubridate::dhours(2);lubridate::dseconds(10)

[1] "600s (~10 minutes)"

[1] "7200s (~2 hours)"

[1] "10s"

Once we know the diffrence of the helper functions for periods and durations, we can then convert the UTC time to local time. We know that Tanzania is +3 hours of greenwhich, therefore , we create a local.time by add the three hours time on the date variable in the ctd.time.

ctd.time.local = ctd.time %>% 
  mutate(local.time = date + lubridate::dhours(3))
ctd.time.local

# A tibble: 22 x 5
   max.depth   lon    lat date                local.time         
       <dbl> <dbl>  <dbl> <dttm>              <dttm>             
 1       250  40.6 -10.5  2004-08-18 15:27:46 2004-08-18 18:27:46
 2       815  40.8 -10.5  2004-08-18 17:00:01 2004-08-18 20:00:01
 3      1015  41.0 -10.5  2004-08-18 20:32:54 2004-08-18 23:32:54
 4       930  41.1 -10.5  2004-08-18 22:44:56 2004-08-19 01:44:56
 5       785  41.3 -10.5  2004-08-19 00:59:59 2004-08-19 03:59:59
 6       945  40.3  -8.83 2004-08-19 11:49:08 2004-08-19 14:49:08
 7       860  40.2  -8.83 2004-08-19 13:33:31 2004-08-19 16:33:31
 8       810  40.0  -8.83 2004-08-19 15:28:18 2004-08-19 18:28:18
 9       650  39.8  -8.83 2004-08-19 17:39:39 2004-08-19 20:39:39
10       630  39.7  -8.83 2004-08-19 19:36:50 2004-08-19 22:36:50
# ... with 12 more rows
…
